5
25
21
8
8
1
1
5
13
48
23
2
3
131
1
1
1
1
1
1
1
1
1
1
1
1
1
1
1
1
1
1
1
1
1
1
1
1
1
1
1
1
1
1
1
1
1
1
1
1
1
1
1
1
1
1
1
1
1
1
1
1
1
1
1
1
1
1
1
1
1
1
1
1
1
1
1
1
1
1
1
1
1
1
1
1
1
1
27
27
27
5
28
1
1
17
23
32
33
24
3
3
1
44
37
37
56
103
103
104
104
104
104
5
58
58
58
58
58
58
58
70
31
66
5
